Library\Bee\artifacts\movedfrom\UnityEditor.UI.ref.dll_104955431402218779.movedfrom
Library\Bee\artifacts\movedfrom\UnityEngine.UI.ref.dll_13680447769613716870.movedfrom
Library\Bee\artifacts\movedfrom\Unity.Analytics.StandardEvents.dll_234315143574698353.movedfrom
Library\Bee\artifacts\movedfrom\Unity.Analytics.Editor.dll_11371902940230240725.movedfrom
Library\Bee\artifacts\movedfrom\Unity.Analytics.Tracker.dll_6097068905046140428.movedfrom
Library\Bee\artifacts\movedfrom\Unity.Plastic.Antlr3.Runtime.dll_15469977908525853145.movedfrom
Library\Bee\artifacts\movedfrom\Unity.Plastic.Newtonsoft.Json.dll_11505057099813098828.movedfrom
Library\Bee\artifacts\movedfrom\UnityEditor.Graphs.dll_5040774515835932348.movedfrom
Library\Bee\artifacts\movedfrom\UnityEditor.CoreModule.dll_14084855898551258762.movedfrom
Library\Bee\artifacts\movedfrom\UnityEditor.DeviceSimulatorModule.dll_1130330618474269527.movedfrom
Library\Bee\artifacts\movedfrom\UnityEditor.dll_8672525005434328299.movedfrom
Library\Bee\artifacts\movedfrom\UnityEditor.GraphViewModule.dll_13361017551369382172.movedfrom
Library\Bee\artifacts\movedfrom\UnityEditor.PackageManagerUIModule.dll_4006575230185673574.movedfrom
Library\Bee\artifacts\movedfrom\UnityEditor.QuickSearchModule.dll_12016759187411700798.movedfrom
Library\Bee\artifacts\movedfrom\UnityEditor.SceneTemplateModule.dll_10736070647788363391.movedfrom
Library\Bee\artifacts\movedfrom\UnityEditor.UIBuilderModule.dll_1005582311373808208.movedfrom
Library\Bee\artifacts\movedfrom\UnityEditor.UIElementsModule.dll_16800308340987401606.movedfrom
Library\Bee\artifacts\movedfrom\UnityEditor.UIElementsSamplesModule.dll_5770743909707417159.movedfrom
Library\Bee\artifacts\movedfrom\UnityEditor.UIServiceModule.dll_5108943638378934890.movedfrom
Library\Bee\artifacts\movedfrom\UnityEditor.UnityConnectModule.dll_5933863031808754240.movedfrom
Library\Bee\artifacts\movedfrom\UnityEngine.AccessibilityModule.dll_14385512017133995548.movedfrom
Library\Bee\artifacts\movedfrom\UnityEngine.AIModule.dll_453810490268512158.movedfrom
Library\Bee\artifacts\movedfrom\UnityEngine.AndroidJNIModule.dll_7453343308542477404.movedfrom
Library\Bee\artifacts\movedfrom\UnityEngine.AnimationModule.dll_9795710536279555522.movedfrom
Library\Bee\artifacts\movedfrom\UnityEngine.ARModule.dll_13816770152867974759.movedfrom
Library\Bee\artifacts\movedfrom\UnityEngine.AssetBundleModule.dll_16910257669845860656.movedfrom
Library\Bee\artifacts\movedfrom\UnityEngine.AudioModule.dll_17991189947604246068.movedfrom
Library\Bee\artifacts\movedfrom\UnityEngine.ClothModule.dll_6959724892831120664.movedfrom
Library\Bee\artifacts\movedfrom\UnityEngine.CoreModule.dll_16616111241093183925.movedfrom
Library\Bee\artifacts\movedfrom\UnityEngine.CrashReportingModule.dll_5735864424102572141.movedfrom
Library\Bee\artifacts\movedfrom\UnityEngine.DirectorModule.dll_4384930005678984466.movedfrom
Library\Bee\artifacts\movedfrom\UnityEngine.dll_12321644498622783952.movedfrom
Library\Bee\artifacts\movedfrom\UnityEngine.DSPGraphModule.dll_4768124554500595251.movedfrom
Library\Bee\artifacts\movedfrom\UnityEngine.GameCenterModule.dll_10501517310197921101.movedfrom
Library\Bee\artifacts\movedfrom\UnityEngine.GIModule.dll_11423533605431531448.movedfrom
Library\Bee\artifacts\movedfrom\UnityEngine.GridModule.dll_14125932831558373292.movedfrom
Library\Bee\artifacts\movedfrom\UnityEngine.HotReloadModule.dll_664871224147548484.movedfrom
Library\Bee\artifacts\movedfrom\UnityEngine.ImageConversionModule.dll_9317523043104837839.movedfrom
Library\Bee\artifacts\movedfrom\UnityEngine.IMGUIModule.dll_3606586526566789653.movedfrom
Library\Bee\artifacts\movedfrom\UnityEngine.InputLegacyModule.dll_8931316323241064225.movedfrom
Library\Bee\artifacts\movedfrom\UnityEngine.InputModule.dll_6927472598750053080.movedfrom
Library\Bee\artifacts\movedfrom\UnityEngine.JSONSerializeModule.dll_2862921786308028070.movedfrom
Library\Bee\artifacts\movedfrom\UnityEngine.LocalizationModule.dll_1171657617975298047.movedfrom
Library\Bee\artifacts\movedfrom\UnityEngine.ParticleSystemModule.dll_11721791871444368379.movedfrom
Library\Bee\artifacts\movedfrom\UnityEngine.PerformanceReportingModule.dll_170510993227547508.movedfrom
Library\Bee\artifacts\movedfrom\UnityEngine.Physics2DModule.dll_15318794871091459415.movedfrom
Library\Bee\artifacts\movedfrom\UnityEngine.PhysicsModule.dll_10190705540514699141.movedfrom
Library\Bee\artifacts\movedfrom\UnityEngine.ProfilerModule.dll_8007575862608925727.movedfrom
Library\Bee\artifacts\movedfrom\UnityEngine.RuntimeInitializeOnLoadManagerInitializerModule.dll_16068468945757279264.movedfrom
Library\Bee\artifacts\movedfrom\UnityEngine.ScreenCaptureModule.dll_4729573143961277192.movedfrom
Library\Bee\artifacts\movedfrom\UnityEngine.SharedInternalsModule.dll_387235543554313247.movedfrom
Library\Bee\artifacts\movedfrom\UnityEngine.SpriteMaskModule.dll_8856703509662665415.movedfrom
Library\Bee\artifacts\movedfrom\UnityEngine.SpriteShapeModule.dll_292306387443054906.movedfrom
Library\Bee\artifacts\movedfrom\UnityEngine.StreamingModule.dll_4361252615137670400.movedfrom
Library\Bee\artifacts\movedfrom\UnityEngine.SubstanceModule.dll_1815333755818685198.movedfrom
Library\Bee\artifacts\movedfrom\UnityEngine.SubsystemsModule.dll_16543616218912649946.movedfrom
Library\Bee\artifacts\movedfrom\UnityEngine.TerrainModule.dll_12084041949833207923.movedfrom
Library\Bee\artifacts\movedfrom\UnityEngine.TerrainPhysicsModule.dll_11756317443218454152.movedfrom
Library\Bee\artifacts\movedfrom\UnityEngine.TextCoreModule.dll_15390271649257422114.movedfrom
Library\Bee\artifacts\movedfrom\UnityEngine.TextRenderingModule.dll_7701792813398201085.movedfrom
Library\Bee\artifacts\movedfrom\UnityEngine.TilemapModule.dll_5093443232394051964.movedfrom
Library\Bee\artifacts\movedfrom\UnityEngine.TLSModule.dll_3905136652380618521.movedfrom
Library\Bee\artifacts\movedfrom\UnityEngine.UIElementsModule.dll_16849405142978146001.movedfrom
Library\Bee\artifacts\movedfrom\UnityEngine.UIElementsNativeModule.dll_9373094215121175432.movedfrom
Library\Bee\artifacts\movedfrom\UnityEngine.UIModule.dll_126066060059473226.movedfrom
Library\Bee\artifacts\movedfrom\UnityEngine.UmbraModule.dll_8395334263031876007.movedfrom
Library\Bee\artifacts\movedfrom\UnityEngine.UNETModule.dll_8736579810400857902.movedfrom
Library\Bee\artifacts\movedfrom\UnityEngine.UnityAnalyticsModule.dll_14000455819396124151.movedfrom
Library\Bee\artifacts\movedfrom\UnityEngine.UnityConnectModule.dll_4591654067743261419.movedfrom
Library\Bee\artifacts\movedfrom\UnityEngine.UnityCurlModule.dll_13478706365267603375.movedfrom
Library\Bee\artifacts\movedfrom\UnityEngine.UnityTestProtocolModule.dll_853576119068613533.movedfrom
Library\Bee\artifacts\movedfrom\UnityEngine.UnityWebRequestAssetBundleModule.dll_9460333498524979720.movedfrom
Library\Bee\artifacts\movedfrom\UnityEngine.UnityWebRequestAudioModule.dll_8816388593075047948.movedfrom
Library\Bee\artifacts\movedfrom\UnityEngine.UnityWebRequestModule.dll_10587265089956244302.movedfrom
Library\Bee\artifacts\movedfrom\UnityEngine.UnityWebRequestTextureModule.dll_470138768623754593.movedfrom
Library\Bee\artifacts\movedfrom\UnityEngine.UnityWebRequestWWWModule.dll_8627278217156129053.movedfrom
Library\Bee\artifacts\movedfrom\UnityEngine.VehiclesModule.dll_13014664167579999405.movedfrom
Library\Bee\artifacts\movedfrom\UnityEngine.VFXModule.dll_13191163735876479110.movedfrom
Library\Bee\artifacts\movedfrom\UnityEngine.VideoModule.dll_2213255722154179033.movedfrom
Library\Bee\artifacts\movedfrom\UnityEngine.VRModule.dll_6093940871664663234.movedfrom
Library\Bee\artifacts\movedfrom\UnityEngine.WindModule.dll_6694359279324002334.movedfrom
Library\Bee\artifacts\movedfrom\UnityEngine.XRModule.dll_9750515243385669664.movedfrom
Library\Bee\artifacts\movedfrom\UnityEditor.Android.Extensions.dll_3529194040755070194.movedfrom
Library\Bee\artifacts\movedfrom\UnityEditor.iOS.Extensions.Common.dll_309957772341227343.movedfrom
Library\Bee\artifacts\movedfrom\UnityEditor.iOS.Extensions.dll_101148430021259878.movedfrom
Library\Bee\artifacts\movedfrom\UnityEditor.iOS.Extensions.Xcode.dll_12403327260299937133.movedfrom
Library\Bee\artifacts\movedfrom\UnityEditor.WindowsStandalone.Extensions.dll_6383346196643120566.movedfrom