-a="C:\Users\user\Desktop\game\Unity_game_8_ZombieParty\Library\PlayerScriptAssemblies\Assembly-CSharp-firstpass.dll"
-a="C:\Users\user\Desktop\game\Unity_game_8_ZombieParty\Library\PlayerScriptAssemblies\Assembly-CSharp.dll"
-a="C:\Users\user\Desktop\game\Unity_game_8_ZombieParty\Library\PlayerScriptAssemblies\Purchasing.Common.dll"
-a="C:\Users\user\Desktop\game\Unity_game_8_ZombieParty\Library\PlayerScriptAssemblies\UnityEngine.Purchasing.dll"
-a="C:\Users\user\Desktop\game\Unity_game_8_ZombieParty\Library\PlayerScriptAssemblies\UnityEngine.Purchasing.WinRTCore.dll"
-a="C:\Users\user\Desktop\game\Unity_game_8_ZombieParty\Library\PlayerScriptAssemblies\UnityEngine.Purchasing.AppleMacosStub.dll"
-a="C:\Users\user\Desktop\game\Unity_game_8_ZombieParty\Library\PlayerScriptAssemblies\UnityEngine.TestRunner.dll"
-a="C:\Users\user\Desktop\game\Unity_game_8_ZombieParty\Library\PlayerScriptAssemblies\Unity.Timeline.dll"
-a="C:\Users\user\Desktop\game\Unity_game_8_ZombieParty\Library\PlayerScriptAssemblies\Unity.TextMeshPro.dll"
-a="C:\Users\user\Desktop\game\Unity_game_8_ZombieParty\Library\PlayerScriptAssemblies\UnityEngine.UI.dll"
-a="C:\Users\user\Desktop\game\Unity_game_8_ZombieParty\Library\PlayerScriptAssemblies\UnityEngine.Purchasing.Security.dll"
-a="C:\Users\user\Desktop\game\Unity_game_8_ZombieParty\Library\PlayerScriptAssemblies\Unity.Analytics.DataPrivacy.dll"
-a="C:\Users\user\Desktop\game\Unity_game_8_ZombieParty\Library\PlayerScriptAssemblies\UnityEngine.Purchasing.WinRTStub.dll"
-a="C:\Users\user\Desktop\game\Unity_game_8_ZombieParty\Library\PlayerScriptAssemblies\UnityEngine.Purchasing.AppleCore.dll"
-a="C:\Users\user\Desktop\game\Unity_game_8_ZombieParty\Library\PlayerScriptAssemblies\UnityEngine.Purchasing.SecurityCore.dll"
-a="C:\Users\user\Desktop\game\Unity_game_8_ZombieParty\Library\PlayerScriptAssemblies\UnityEngine.Purchasing.Codeless.dll"
-a="C:\Users\user\Desktop\game\Unity_game_8_ZombieParty\Library\PlayerScriptAssemblies\GoogleMobileAds.dll"
-a="C:\Users\user\Desktop\game\Unity_game_8_ZombieParty\Library\PlayerScriptAssemblies\UnityEngine.Purchasing.Stores.dll"
-a="C:\Users\user\Desktop\game\Unity_game_8_ZombieParty\Library\PlayerScriptAssemblies\UnityEngine.Purchasing.AppleStub.dll"
-a="C:\Users\user\Desktop\game\Unity_game_8_ZombieParty\Assets\Plugins\UDP\UDP.dll"
-a="C:\Users\user\Desktop\game\Unity_game_8_ZombieParty\Library\PackageCache\com.unity.ext.nunit@1.0.6\net35\unity-custom\nunit.framework.dll"
-a="C:\Users\user\Desktop\game\Unity_game_8_ZombieParty\Library\PackageCache\com.unity.analytics@3.6.11\AnalyticsStandardEvents\Unity.Analytics.StandardEvents.dll"
-a="C:\Users\user\Desktop\game\Unity_game_8_ZombieParty\Library\PackageCache\com.unity.analytics@3.6.11\Unity.Analytics.Editor.dll"
-a="C:\Users\user\Desktop\game\Unity_game_8_ZombieParty\Assets\Plugins\Google.MiniJson.dll"
-a="C:\Users\user\Desktop\game\Unity_game_8_ZombieParty\Library\PackageCache\com.unity.analytics@3.6.11\Unity.Analytics.Tracker.dll"
-s="C:\Users\user\Desktop\pj\2021.1.23f1\Editor\Data\Managed\UnityEngine"
-s="C:\Users\user\Desktop\game\Unity_game_8_ZombieParty\Library\PlayerScriptAssemblies"
-s="C:\Users\user\Desktop\game\Unity_game_8_ZombieParty\Assets\Plugins\UDP"
-s="C:\Users\user\Desktop\game\Unity_game_8_ZombieParty\Library\PackageCache\com.unity.ext.nunit@1.0.6\net35\unity-custom"
-s="C:\Users\user\Desktop\game\Unity_game_8_ZombieParty\Library\PackageCache\com.unity.analytics@3.6.11\AnalyticsStandardEvents"
-s="C:\Users\user\Desktop\game\Unity_game_8_ZombieParty\Library\PackageCache\com.unity.analytics@3.6.11"
-s="C:\Users\user\Desktop\game\Unity_game_8_ZombieParty\Assets\Plugins"
-s="C:\Users\user\Desktop\pj\2021.1.23f1\Editor\Data\Managed\UnityEngine"
-s="C:\Users\user\Desktop\pj\2021.1.23f1\Editor\Data\MonoBleedingEdge\lib\mono\4.7.1-api"
-s="C:\Users\user\Desktop\pj\2021.1.23f1\Editor\Data\MonoBleedingEdge\lib\mono\4.7.1-api\Facades"
-o="C:\Users\user\Desktop\game\Unity_game_8_ZombieParty\Library\BuildPlayerData\Player"
-rn="RuntimeInitializeOnLoads.json"
-tn="TypeDb-All.json"
