{
"instructions_readme": "1) Open Chrome, 2) go to chrome://tracing, 3) click Load, 4) navigate to this file.",
"traceEvents":[
{ "cat":"", "pid":1, "tid":0, "ts":0, "ph":"M", "name":"process_name", "args": { "name":"tundra" } }
,{ "pid":1, "tid":0, "ts":1070334886725, "dur":984, "ph":"X", "name": "DriverCheckDagSignatures",  "args": { "durationMS":1, "detail":"" }}
,{ "pid":1, "tid":0, "ts":1070334887709, "dur":374, "ph":"X", "name": "DriverInitData",  "args": { "durationMS":0, "detail":"" }}
,{ "pid":1, "tid":0, "ts":1070334888167, "dur":8, "ph":"X", "name": "Tundra",  "args": { "durationMS":0, "detail":"RemoveStaleOutputs" }}
,{ "pid":1, "tid":0, "ts":1070334888182, "dur":1, "ph":"X", "name": "Tundra",  "args": { "durationMS":0, "detail":"PrepareNodes" }}
,{ "pid":1, "tid":0, "ts":1070334888183, "dur":437, "ph":"X", "name": "Tundra",  "args": { "durationMS":0, "detail":"BuildQueueInit" }}
,{ "pid":1, "tid":0, "ts":1070334897697, "dur":10590, "ph":"X", "name": "JoinBuildThread",  "args": { "durationMS":11, "detail":"" }}
,{ "pid":1, "tid":0, "ts":1070334908300, "dur":4, "ph":"X", "name": "JoinBuildThread",  "args": { "durationMS":0, "detail":"" }}
,{ "pid":1, "tid":0, "ts":1070334908310, "dur":2, "ph":"X", "name": "JoinBuildThread",  "args": { "durationMS":0, "detail":"" }}
,{ "pid":1, "tid":0, "ts":1070334908318, "dur":2, "ph":"X", "name": "JoinBuildThread",  "args": { "durationMS":0, "detail":"" }}
,{ "pid":1, "tid":0, "ts":1070334908326, "dur":2, "ph":"X", "name": "JoinBuildThread",  "args": { "durationMS":0, "detail":"" }}
,{ "pid":1, "tid":0, "ts":1070334908333, "dur":2, "ph":"X", "name": "JoinBuildThread",  "args": { "durationMS":0, "detail":"" }}
,{ "pid":1, "tid":0, "ts":1070334908341, "dur":2, "ph":"X", "name": "JoinBuildThread",  "args": { "durationMS":0, "detail":"" }}
,{ "pid":1, "tid":0, "ts":1070334908349, "dur":2, "ph":"X", "name": "JoinBuildThread",  "args": { "durationMS":0, "detail":"" }}
,{ "pid":1, "tid":0, "ts":1070334908357, "dur":0, "ph":"X", "name": "SharedResourceDestroy",  "args": { "durationMS":0, "detail":"" }}
,{ "pid":1, "tid":0, "ts":1070334908366, "dur":1404, "ph":"X", "name": "Tundra",  "args": { "durationMS":1, "detail":"Write AllBuiltNodes" }}
,{ "pid":1, "tid":1, "ts":1070334888823, "dur":8694, "ph":"X", "name": "CheckInputSignature",  "args": { "durationMS":9, "detail":"Il2Cpp C:/Users/user/Desktop/game/Unity_game_8_ZombieParty/Library/Il2cppBuildCache/Android/armeabi-v7a/Native/armeabi-v7a/libil2cpp.so" }}
,{ "pid":1, "tid":1, "ts":1070334897641, "dur":1, "ph":"X", "name": "CheckInputSignature",  "args": { "durationMS":0, "detail":"all_tundra_nodes" }}
,{ "pid":1, "tid":1, "ts":1070334897644, "dur":66, "ph":"X", "name": "WaitingForWork", "cname":"thread_state_sleeping",  "args": { "durationMS":0, "detail":"" }}
,{ "pid":1, "tid":1, "ts":1070334897710, "dur":10358, "ph":"X", "name": "Exiting",  "args": { "durationMS":10, "detail":"BuildLoop" }}
,{ "pid":1, "tid":2, "ts":1070334888838, "dur":8865, "ph":"X", "name": "WaitingForWork", "cname":"thread_state_sleeping",  "args": { "durationMS":9, "detail":"" }}
,{ "pid":1, "tid":2, "ts":1070334897703, "dur":10368, "ph":"X", "name": "Exiting",  "args": { "durationMS":10, "detail":"BuildLoop" }}
,{ "pid":1, "tid":3, "ts":1070334888934, "dur":8767, "ph":"X", "name": "WaitingForWork", "cname":"thread_state_sleeping",  "args": { "durationMS":9, "detail":"" }}
,{ "pid":1, "tid":3, "ts":1070334897701, "dur":10374, "ph":"X", "name": "Exiting",  "args": { "durationMS":10, "detail":"BuildLoop" }}
,{ "pid":1, "tid":4, "ts":1070334889021, "dur":8679, "ph":"X", "name": "WaitingForWork", "cname":"thread_state_sleeping",  "args": { "durationMS":9, "detail":"" }}
,{ "pid":1, "tid":4, "ts":1070334897700, "dur":10368, "ph":"X", "name": "Exiting",  "args": { "durationMS":10, "detail":"BuildLoop" }}
,{ "pid":1, "tid":5, "ts":1070334889094, "dur":8605, "ph":"X", "name": "WaitingForWork", "cname":"thread_state_sleeping",  "args": { "durationMS":9, "detail":"" }}
,{ "pid":1, "tid":5, "ts":1070334897700, "dur":10395, "ph":"X", "name": "Exiting",  "args": { "durationMS":10, "detail":"BuildLoop" }}
,{ "pid":1, "tid":6, "ts":1070334889133, "dur":8568, "ph":"X", "name": "WaitingForWork", "cname":"thread_state_sleeping",  "args": { "durationMS":9, "detail":"" }}
,{ "pid":1, "tid":6, "ts":1070334897701, "dur":10394, "ph":"X", "name": "Exiting",  "args": { "durationMS":10, "detail":"BuildLoop" }}
,{ "pid":1, "tid":7, "ts":1070334889172, "dur":8526, "ph":"X", "name": "WaitingForWork", "cname":"thread_state_sleeping",  "args": { "durationMS":9, "detail":"" }}
,{ "pid":1, "tid":7, "ts":1070334897697, "dur":10401, "ph":"X", "name": "Exiting",  "args": { "durationMS":10, "detail":"BuildLoop" }}
,{ "pid":1, "tid":8, "ts":1070334889208, "dur":8495, "ph":"X", "name": "WaitingForWork", "cname":"thread_state_sleeping",  "args": { "durationMS":8, "detail":"" }}
,{ "pid":1, "tid":8, "ts":1070334897706, "dur":10362, "ph":"X", "name": "Exiting",  "args": { "durationMS":10, "detail":"BuildLoop" }}

]
}
